{
    "KPlugin": {
        "Icon": "",
        "Name": "Flickr",
        "Name[ca]": "Flickr",
        "Name[cs]": "Flickr",
        "Name[da]": "Flickr",
        "Name[de]": "Flickr",
        "Name[en_GB]": "Flickr",
        "Name[es]": "Flickr",
        "Name[et]": "Flickr",
        "Name[eu]": "Flickr",
        "Name[fi]": "Flickr",
        "Name[fr]": "Flickr",
        "Name[gl]": "Flickr",
        "Name[hu]": "Flickr",
        "Name[ia]": "Flickr",
        "Name[id]": "Flickr",
        "Name[it]": "Flickr",
        "Name[ko]": "Flickr",
        "Name[lt]": "Flickr",
        "Name[nl]": "Flickr",
        "Name[nn]": "Flickr",
        "Name[pt]": "Flickr",
        "Name[pt_BR]": "Flickr",
        "Name[ro]": "Flickr",
        "Name[ru]": "Flickr",
        "Name[sk]": "Flickr",
        "Name[sl]": "Flickr",
        "Name[sv]": "Flickr",
        "Name[uk]": "Flickr",
        "Name[x-test]": "xxFlickrxx",
        "Name[zh_CN]": "Flickr",
        "Name[zh_TW]": "Flickr",
        "ServiceTypes": [
            "PlasmaPoTD/Plugin"
        ]
    },
    "X-KDE-PlasmaPoTDProvider-Identifier": "flickr"
}
